chrom	length
1	195471971
2	182113224
3	160039680
4	156508116
5	151834684
6	149736546
7	145441459
8	129401213
9	124595110
10	130694993
11	122082543
12	120129022
13	120421639
14	124902244
15	104043685
16	98207768
17	94987271
18	90702639
19	61431566
X	171031299
Y	91744698
GL456210.1	169725
GL456211.1	241735
GL456212.1	153618
GL456221.1	206961
GL456216.1	66673
JH584292.1	14945
GL456350.1	227966
JH584293.1	207968
JH584294.1	191905
JH584295.1	1976
JH584296.1	199368
JH584297.1	205776
JH584298.1	184189
GL456354.1	195993
JH584299.1	953012
GL456219.1	175968
GL456233.1	336933
JH584303.1	158099
GL456239.1	40056
GL456381.1	25871
GL456385.1	35240
GL456372.1	28664
JH584304.1	114452
MT	16299
